n;valid;K_operon:ca;K_operon:alg:ca;K_operon:ca:free;K_operon:alg:ca:free;K_operon;K_operon:free;K_operon:alg;K_operon:alg:free;K_mucuB;K_mucuB:prod;
;;0..2;0..2;0..2;0..2;0..2;0..2;0..2;0..2;0..1;0..1;
0;OK;0;0;1;2;0;0;1;1;0;0;
1;OK;0;0;1;2;0;0;1;2;0;0;
2;OK;0;0;1;2;0;0;2;1;0;0;
3;OK;0;0;1;2;0;0;2;2;0;0;
4;OK;0;0;1;2;0;1;1;1;0;0;
5;OK;0;0;1;2;0;1;2;1;0;0;
6;OK;0;0;1;2;0;2;1;1;0;0;
7;OK;0;0;1;2;0;2;2;1;0;0;
8;OK;0;0;1;2;1;0;1;1;0;0;
9;OK;0;0;1;2;1;1;1;1;0;0;
10;OK;0;0;1;2;1;2;1;1;0;0;
11;OK;0;0;1;2;2;0;1;1;0;0;
12;OK;0;0;1;2;2;1;1;1;0;0;
13;OK;0;0;1;2;2;2;1;1;0;0;
14;OK;0;0;2;2;0;0;1;1;0;0;
15;OK;0;0;2;2;0;0;1;2;0;0;
16;OK;0;0;2;2;0;0;2;1;0;0;
17;OK;0;0;2;2;0;0;2;2;0;0;
18;OK;0;0;2;2;0;1;1;1;0;0;
19;OK;0;0;2;2;0;1;2;1;0;0;
20;OK;0;0;2;2;0;2;1;1;0;0;
21;OK;0;0;2;2;0;2;2;1;0;0;
22;OK;0;0;2;2;1;0;1;1;0;0;
23;OK;0;0;2;2;1;1;1;1;0;0;
24;OK;0;0;2;2;1;2;1;1;0;0;
25;OK;0;0;2;2;2;0;1;1;0;0;
26;OK;0;0;2;2;2;1;1;1;0;0;
27;OK;0;0;2;2;2;2;1;1;0;0;
28;OK;0;1;1;2;0;0;1;1;0;0;
29;OK;0;1;1;2;0;0;1;2;0;0;
30;OK;0;1;1;2;0;0;2;1;0;0;
31;OK;0;1;1;2;0;0;2;2;0;0;
32;OK;0;1;1;2;0;1;1;1;0;0;
33;OK;0;1;1;2;0;1;2;1;0;0;
34;OK;0;1;1;2;0;2;1;1;0;0;
35;OK;0;1;1;2;0;2;2;1;0;0;
36;OK;0;1;1;2;1;0;1;1;0;0;
37;OK;0;1;1;2;1;1;1;1;0;0;
38;OK;0;1;1;2;1;2;1;1;0;0;
39;OK;0;1;1;2;2;0;1;1;0;0;
40;OK;0;1;1;2;2;1;1;1;0;0;
41;OK;0;1;1;2;2;2;1;1;0;0;
42;OK;0;1;2;2;0;0;1;1;0;0;
43;OK;0;1;2;2;0;0;1;2;0;0;
44;OK;0;1;2;2;0;0;2;1;0;0;
45;OK;0;1;2;2;0;0;2;2;0;0;
46;OK;0;1;2;2;0;1;1;1;0;0;
47;OK;0;1;2;2;0;1;2;1;0;0;
48;OK;0;1;2;2;0;2;1;1;0;0;
49;OK;0;1;2;2;0;2;2;1;0;0;
50;OK;0;1;2;2;1;0;1;1;0;0;
51;OK;0;1;2;2;1;1;1;1;0;0;
52;OK;0;1;2;2;1;2;1;1;0;0;
53;OK;0;1;2;2;2;0;1;1;0;0;
54;OK;0;1;2;2;2;1;1;1;0;0;
55;OK;0;1;2;2;2;2;1;1;0;0;
56;OK;0;2;1;0;0;0;1;1;0;1;
57;OK;0;2;1;0;0;0;1;2;0;1;
58;OK;0;2;1;0;0;0;2;1;0;1;
59;OK;0;2;1;0;0;0;2;2;0;1;
60;OK;0;2;1;0;0;1;1;1;0;1;
61;OK;0;2;1;0;0;2;1;1;0;1;
62;OK;0;2;1;0;1;0;1;1;0;1;
63;OK;0;2;1;0;1;0;1;2;0;1;
64;OK;0;2;1;0;1;1;1;1;0;1;
65;OK;0;2;1;0;1;2;1;1;0;1;
66;OK;0;2;1;0;2;0;1;1;0;1;
67;OK;0;2;1;0;2;0;1;2;0;1;
68;OK;0;2;1;0;2;1;1;1;0;1;
69;OK;0;2;1;0;2;2;1;1;0;1;
70;OK;0;2;1;1;0;0;1;1;0;1;
71;OK;0;2;1;1;0;0;1;2;0;1;
72;OK;0;2;1;1;0;0;2;1;0;1;
73;OK;0;2;1;1;0;0;2;2;0;1;
74;OK;0;2;1;1;0;1;1;1;0;1;
75;OK;0;2;1;1;0;2;1;1;0;1;
76;OK;0;2;1;1;1;0;1;1;0;1;
77;OK;0;2;1;1;1;0;1;2;0;1;
78;OK;0;2;1;1;1;1;1;1;0;1;
79;OK;0;2;1;1;1;2;1;1;0;1;
80;OK;0;2;1;1;2;0;1;1;0;1;
81;OK;0;2;1;1;2;0;1;2;0;1;
82;OK;0;2;1;1;2;1;1;1;0;1;
83;OK;0;2;1;1;2;2;1;1;0;1;
84;OK;0;2;1;2;0;0;1;1;0;0..1;
85;OK;0;2;1;2;0;0;1;2;0;0..1;
86;OK;0;2;1;2;0;0;2;1;0;0..1;
87;OK;0;2;1;2;0;0;2;2;0;0..1;
88;OK;0;2;1;2;0;1;1;1;0;0..1;
89;OK;0;2;1;2;0;1;2;1;0;0;
90;OK;0;2;1;2;0;2;1;1;0;0..1;
91;OK;0;2;1;2;0;2;2;1;0;0;
92;OK;0;2;1;2;1;0;1;1;0;0..1;
93;OK;0;2;1;2;1;0;1;2;0;1;
94;OK;0;2;1;2;1;1;1;1;0;0..1;
95;OK;0;2;1;2;1;2;1;1;0;0..1;
96;OK;0;2;1;2;2;0;1;1;0;0..1;
97;OK;0;2;1;2;2;0;1;2;0;1;
98;OK;0;2;1;2;2;1;1;1;0;0..1;
99;OK;0;2;1;2;2;2;1;1;0;0..1;
100;OK;0;2;2;0;0;0;1;1;0;1;
101;OK;0;2;2;0;0;0;1;2;0;1;
102;OK;0;2;2;0;0;0;2;1;0;1;
103;OK;0;2;2;0;0;0;2;2;0;1;
104;OK;0;2;2;0;0;1;1;1;0;1;
105;OK;0;2;2;0;0;2;1;1;0;1;
106;OK;0;2;2;0;1;0;1;1;0;1;
107;OK;0;2;2;0;1;0;1;2;0;1;
108;OK;0;2;2;0;1;1;1;1;0;1;
109;OK;0;2;2;0;1;2;1;1;0;1;
110;OK;0;2;2;0;2;0;1;1;0;1;
111;OK;0;2;2;0;2;0;1;2;0;1;
112;OK;0;2;2;0;2;1;1;1;0;1;
113;OK;0;2;2;0;2;2;1;1;0;1;
114;OK;0;2;2;1;0;0;1;1;0;1;
115;OK;0;2;2;1;0;0;1;2;0;1;
116;OK;0;2;2;1;0;0;2;1;0;1;
117;OK;0;2;2;1;0;0;2;2;0;1;
118;OK;0;2;2;1;0;1;1;1;0;1;
119;OK;0;2;2;1;0;2;1;1;0;1;
120;OK;0;2;2;1;1;0;1;1;0;1;
121;OK;0;2;2;1;1;0;1;2;0;1;
122;OK;0;2;2;1;1;1;1;1;0;1;
123;OK;0;2;2;1;1;2;1;1;0;1;
124;OK;0;2;2;1;2;0;1;1;0;1;
125;OK;0;2;2;1;2;0;1;2;0;1;
126;OK;0;2;2;1;2;1;1;1;0;1;
127;OK;0;2;2;1;2;2;1;1;0;1;
128;OK;0;2;2;2;0;0;1;1;0;0..1;
129;OK;0;2;2;2;0;0;1;2;0;0..1;
130;OK;0;2;2;2;0;0;2;1;0;0..1;
131;OK;0;2;2;2;0;0;2;2;0;0..1;
132;OK;0;2;2;2;0;1;1;1;0;0..1;
133;OK;0;2;2;2;0;1;2;1;0;0;
134;OK;0;2;2;2;0;2;1;1;0;0..1;
135;OK;0;2;2;2;0;2;2;1;0;0;
136;OK;0;2;2;2;1;0;1;1;0;0..1;
137;OK;0;2;2;2;1;0;1;2;0;1;
138;OK;0;2;2;2;1;1;1;1;0;0..1;
139;OK;0;2;2;2;1;2;1;1;0;0..1;
140;OK;0;2;2;2;2;0;1;1;0;0..1;
141;OK;0;2;2;2;2;0;1;2;0;1;
142;OK;0;2;2;2;2;1;1;1;0;0..1;
143;OK;0;2;2;2;2;2;1;1;0;0..1;
144;OK;1;0;0;2;0;0;1;1;1;0;
145;OK;1;0;0;2;0;0;1;2;1;0;
146;OK;1;0;0;2;0;0;2;1;1;0;
147;OK;1;0;0;2;0;0;2;2;1;0;
148;OK;1;0;0;2;0;1;1;1;1;0;
149;OK;1;0;0;2;0;1;2;1;1;0;
150;OK;1;0;0;2;0;2;1;1;1;0;
151;OK;1;0;0;2;0;2;2;1;1;0;
152;OK;1;0;0;2;1;0;1;1;1;0;
153;OK;1;0;0;2;1;1;1;1;1;0;
154;OK;1;0;0;2;1;2;1;1;1;0;
155;OK;1;0;0;2;2;0;1;1;1;0;
156;OK;1;0;0;2;2;1;1;1;1;0;
157;OK;1;0;0;2;2;2;1;1;1;0;
158;OK;1;0;1;2;0;0;1;1;0..1;0;
159;OK;1;0;1;2;0;0;1;2;0..1;0;
160;OK;1;0;1;2;0;0;2;1;0..1;0;
161;OK;1;0;1;2;0;0;2;2;0..1;0;
162;OK;1;0;1;2;0;1;1;1;0..1;0;
163;OK;1;0;1;2;0;1;2;1;0..1;0;
164;OK;1;0;1;2;0;2;1;1;0..1;0;
165;OK;1;0;1;2;0;2;2;1;0..1;0;
166;OK;1;0;1;2;1;0;1;1;0..1;0;
167;OK;1;0;1;2;1;1;1;1;0..1;0;
168;OK;1;0;1;2;1;2;1;1;0..1;0;
169;OK;1;0;1;2;2;0;1;1;0..1;0;
170;OK;1;0;1;2;2;1;1;1;0..1;0;
171;OK;1;0;1;2;2;2;1;1;0..1;0;
172;OK;1;0;2;2;0;0;1;1;0..1;0;
173;OK;1;0;2;2;0;0;1;2;0..1;0;
174;OK;1;0;2;2;0;0;2;1;0..1;0;
175;OK;1;0;2;2;0;0;2;2;0..1;0;
176;OK;1;0;2;2;0;1;1;1;0..1;0;
177;OK;1;0;2;2;0;1;2;1;0..1;0;
178;OK;1;0;2;2;0;2;1;1;0..1;0;
179;OK;1;0;2;2;0;2;2;1;0..1;0;
180;OK;1;0;2;2;1;0;1;1;0..1;0;
181;OK;1;0;2;2;1;1;1;1;0..1;0;
182;OK;1;0;2;2;1;2;1;1;0..1;0;
183;OK;1;0;2;2;2;0;1;1;0..1;0;
184;OK;1;0;2;2;2;1;1;1;0..1;0;
185;OK;1;0;2;2;2;2;1;1;0..1;0;
186;OK;1;1;0;2;0;0;1;1;1;0;
187;OK;1;1;0;2;0;0;1;2;1;0;
188;OK;1;1;0;2;0;0;2;1;1;0;
189;OK;1;1;0;2;0;0;2;2;1;0;
190;OK;1;1;0;2;0;1;1;1;1;0;
191;OK;1;1;0;2;0;1;2;1;1;0;
192;OK;1;1;0;2;0;2;1;1;1;0;
193;OK;1;1;0;2;0;2;2;1;1;0;
194;OK;1;1;0;2;1;0;1;1;1;0;
195;OK;1;1;0;2;1;1;1;1;1;0;
196;OK;1;1;0;2;1;2;1;1;1;0;
197;OK;1;1;0;2;2;0;1;1;1;0;
198;OK;1;1;0;2;2;1;1;1;1;0;
199;OK;1;1;0;2;2;2;1;1;1;0;
200;OK;1;1;1;2;0;0;1;1;0..1;0;
201;OK;1;1;1;2;0;0;1;2;0..1;0;
202;OK;1;1;1;2;0;0;2;1;0..1;0;
203;OK;1;1;1;2;0;0;2;2;0..1;0;
204;OK;1;1;1;2;0;1;1;1;0..1;0;
205;OK;1;1;1;2;0;1;2;1;0..1;0;
206;OK;1;1;1;2;0;2;1;1;0..1;0;
207;OK;1;1;1;2;0;2;2;1;0..1;0;
208;OK;1;1;1;2;1;0;1;1;0..1;0;
209;OK;1;1;1;2;1;1;1;1;0..1;0;
210;OK;1;1;1;2;1;2;1;1;0..1;0;
211;OK;1;1;1;2;2;0;1;1;0..1;0;
212;OK;1;1;1;2;2;1;1;1;0..1;0;
213;OK;1;1;1;2;2;2;1;1;0..1;0;
214;OK;1;1;2;2;0;0;1;1;0..1;0;
215;OK;1;1;2;2;0;0;1;2;0..1;0;
216;OK;1;1;2;2;0;0;2;1;0..1;0;
217;OK;1;1;2;2;0;0;2;2;0..1;0;
218;OK;1;1;2;2;0;1;1;1;0..1;0;
219;OK;1;1;2;2;0;1;2;1;0..1;0;
220;OK;1;1;2;2;0;2;1;1;0..1;0;
221;OK;1;1;2;2;0;2;2;1;0..1;0;
222;OK;1;1;2;2;1;0;1;1;0..1;0;
223;OK;1;1;2;2;1;1;1;1;0..1;0;
224;OK;1;1;2;2;1;2;1;1;0..1;0;
225;OK;1;1;2;2;2;0;1;1;0..1;0;
226;OK;1;1;2;2;2;1;1;1;0..1;0;
227;OK;1;1;2;2;2;2;1;1;0..1;0;
228;OK;1;2;0;0;0;0;1;1;1;1;
229;OK;1;2;0;0;0;0;1;2;1;1;
230;OK;1;2;0;0;0;0;2;1;1;1;
231;OK;1;2;0;0;0;0;2;2;1;1;
232;OK;1;2;0;0;0;1;1;1;1;1;
233;OK;1;2;0;0;0;2;1;1;1;1;
234;OK;1;2;0;0;1;0;1;1;1;1;
235;OK;1;2;0;0;1;0;1;2;1;1;
236;OK;1;2;0;0;1;1;1;1;1;1;
237;OK;1;2;0;0;1;2;1;1;1;1;
238;OK;1;2;0;0;2;0;1;1;1;1;
239;OK;1;2;0;0;2;0;1;2;1;1;
240;OK;1;2;0;0;2;1;1;1;1;1;
241;OK;1;2;0;0;2;2;1;1;1;1;
242;OK;1;2;0;1;0;0;1;1;1;1;
243;OK;1;2;0;1;0;0;1;2;1;1;
244;OK;1;2;0;1;0;0;2;1;1;1;
245;OK;1;2;0;1;0;0;2;2;1;1;
246;OK;1;2;0;1;0;1;1;1;1;1;
247;OK;1;2;0;1;0;2;1;1;1;1;
248;OK;1;2;0;1;1;0;1;1;1;1;
249;OK;1;2;0;1;1;0;1;2;1;1;
250;OK;1;2;0;1;1;1;1;1;1;1;
251;OK;1;2;0;1;1;2;1;1;1;1;
252;OK;1;2;0;1;2;0;1;1;1;1;
253;OK;1;2;0;1;2;0;1;2;1;1;
254;OK;1;2;0;1;2;1;1;1;1;1;
255;OK;1;2;0;1;2;2;1;1;1;1;
256;OK;1;2;0;2;0;0;1;1;1;0..1;
257;OK;1;2;0;2;0;0;1;2;1;0..1;
258;OK;1;2;0;2;0;0;2;1;1;0..1;
259;OK;1;2;0;2;0;0;2;2;1;0..1;
260;OK;1;2;0;2;0;1;1;1;1;0..1;
261;OK;1;2;0;2;0;1;2;1;1;0;
262;OK;1;2;0;2;0;2;1;1;1;0..1;
263;OK;1;2;0;2;0;2;2;1;1;0;
264;OK;1;2;0;2;1;0;1;1;1;0..1;
265;OK;1;2;0;2;1;0;1;2;1;1;
266;OK;1;2;0;2;1;1;1;1;1;0..1;
267;OK;1;2;0;2;1;2;1;1;1;0..1;
268;OK;1;2;0;2;2;0;1;1;1;0..1;
269;OK;1;2;0;2;2;0;1;2;1;1;
270;OK;1;2;0;2;2;1;1;1;1;0..1;
271;OK;1;2;0;2;2;2;1;1;1;0..1;
272;OK;1;2;1;0;0;0;1;1;0..1;1;
273;OK;1;2;1;0;0;0;1;2;0..1;1;
274;OK;1;2;1;0;0;0;2;1;0..1;1;
275;OK;1;2;1;0;0;0;2;2;0..1;1;
276;OK;1;2;1;0;0;1;1;1;0..1;1;
277;OK;1;2;1;0;0;2;1;1;0..1;1;
278;OK;1;2;1;0;1;0;1;1;0..1;1;
279;OK;1;2;1;0;1;0;1;2;0..1;1;
280;OK;1;2;1;0;1;1;1;1;0..1;1;
281;OK;1;2;1;0;1;2;1;1;0..1;1;
282;OK;1;2;1;0;2;0;1;1;0..1;1;
283;OK;1;2;1;0;2;0;1;2;0..1;1;
284;OK;1;2;1;0;2;1;1;1;0..1;1;
285;OK;1;2;1;0;2;2;1;1;0..1;1;
286;OK;1;2;1;1;0;0;1;1;0..1;1;
287;OK;1;2;1;1;0;0;1;2;0..1;1;
288;OK;1;2;1;1;0;0;2;1;0..1;1;
289;OK;1;2;1;1;0;0;2;2;0..1;1;
290;OK;1;2;1;1;0;1;1;1;0..1;1;
291;OK;1;2;1;1;0;2;1;1;0..1;1;
292;OK;1;2;1;1;1;0;1;1;0..1;1;
293;OK;1;2;1;1;1;0;1;2;0..1;1;
294;OK;1;2;1;1;1;1;1;1;0..1;1;
295;OK;1;2;1;1;1;2;1;1;0..1;1;
296;OK;1;2;1;1;2;0;1;1;0..1;1;
297;OK;1;2;1;1;2;0;1;2;0..1;1;
298;OK;1;2;1;1;2;1;1;1;0..1;1;
299;OK;1;2;1;1;2;2;1;1;0..1;1;
300;OK;1;2;1;2;0;0;1;1;0..1;0..1;
301;OK;1;2;1;2;0;0;1;2;0..1;0..1;
302;OK;1;2;1;2;0;0;2;1;0..1;0..1;
303;OK;1;2;1;2;0;0;2;2;0..1;0..1;
304;OK;1;2;1;2;0;1;1;1;0..1;0..1;
305;OK;1;2;1;2;0;1;2;1;0..1;0;
306;OK;1;2;1;2;0;2;1;1;0..1;0..1;
307;OK;1;2;1;2;0;2;2;1;0..1;0;
308;OK;1;2;1;2;1;0;1;1;0..1;0..1;
309;OK;1;2;1;2;1;0;1;2;0..1;1;
310;OK;1;2;1;2;1;1;1;1;0..1;0..1;
311;OK;1;2;1;2;1;2;1;1;0..1;0..1;
312;OK;1;2;1;2;2;0;1;1;0..1;0..1;
313;OK;1;2;1;2;2;0;1;2;0..1;1;
314;OK;1;2;1;2;2;1;1;1;0..1;0..1;
315;OK;1;2;1;2;2;2;1;1;0..1;0..1;
316;OK;1;2;2;0;0;0;1;1;0..1;1;
317;OK;1;2;2;0;0;0;1;2;0..1;1;
318;OK;1;2;2;0;0;0;2;1;0..1;1;
319;OK;1;2;2;0;0;0;2;2;0..1;1;
320;OK;1;2;2;0;0;1;1;1;0..1;1;
321;OK;1;2;2;0;0;2;1;1;0..1;1;
322;OK;1;2;2;0;1;0;1;1;0..1;1;
323;OK;1;2;2;0;1;0;1;2;0..1;1;
324;OK;1;2;2;0;1;1;1;1;0..1;1;
325;OK;1;2;2;0;1;2;1;1;0..1;1;
326;OK;1;2;2;0;2;0;1;1;0..1;1;
327;OK;1;2;2;0;2;0;1;2;0..1;1;
328;OK;1;2;2;0;2;1;1;1;0..1;1;
329;OK;1;2;2;0;2;2;1;1;0..1;1;
330;OK;1;2;2;1;0;0;1;1;0..1;1;
331;OK;1;2;2;1;0;0;1;2;0..1;1;
332;OK;1;2;2;1;0;0;2;1;0..1;1;
333;OK;1;2;2;1;0;0;2;2;0..1;1;
334;OK;1;2;2;1;0;1;1;1;0..1;1;
335;OK;1;2;2;1;0;2;1;1;0..1;1;
336;OK;1;2;2;1;1;0;1;1;0..1;1;
337;OK;1;2;2;1;1;0;1;2;0..1;1;
338;OK;1;2;2;1;1;1;1;1;0..1;1;
339;OK;1;2;2;1;1;2;1;1;0..1;1;
340;OK;1;2;2;1;2;0;1;1;0..1;1;
341;OK;1;2;2;1;2;0;1;2;0..1;1;
342;OK;1;2;2;1;2;1;1;1;0..1;1;
343;OK;1;2;2;1;2;2;1;1;0..1;1;
344;OK;1;2;2;2;0;0;1;1;0..1;0..1;
345;OK;1;2;2;2;0;0;1;2;0..1;0..1;
346;OK;1;2;2;2;0;0;2;1;0..1;0..1;
347;OK;1;2;2;2;0;0;2;2;0..1;0..1;
348;OK;1;2;2;2;0;1;1;1;0..1;0..1;
349;OK;1;2;2;2;0;1;2;1;0..1;0;
350;OK;1;2;2;2;0;2;1;1;0..1;0..1;
351;OK;1;2;2;2;0;2;2;1;0..1;0;
352;OK;1;2;2;2;1;0;1;1;0..1;0..1;
353;OK;1;2;2;2;1;0;1;2;0..1;1;
354;OK;1;2;2;2;1;1;1;1;0..1;0..1;
355;OK;1;2;2;2;1;2;1;1;0..1;0..1;
356;OK;1;2;2;2;2;0;1;1;0..1;0..1;
357;OK;1;2;2;2;2;0;1;2;0..1;1;
358;OK;1;2;2;2;2;1;1;1;0..1;0..1;
359;OK;1;2;2;2;2;2;1;1;0..1;0..1;
360;OK;2;0;0;2;0;0;1;1;1;0;
361;OK;2;0;0;2;0;0;1;2;1;0;
362;OK;2;0;0;2;0;0;2;1;1;0;
363;OK;2;0;0;2;0;0;2;2;1;0;
364;OK;2;0;0;2;0;1;1;1;1;0;
365;OK;2;0;0;2;0;1;2;1;1;0;
366;OK;2;0;0;2;0;2;1;1;1;0;
367;OK;2;0;0;2;0;2;2;1;1;0;
368;OK;2;0;0;2;1;0;1;1;1;0;
369;OK;2;0;0;2;1;1;1;1;1;0;
370;OK;2;0;0;2;1;2;1;1;1;0;
371;OK;2;0;0;2;2;0;1;1;1;0;
372;OK;2;0;0;2;2;1;1;1;1;0;
373;OK;2;0;0;2;2;2;1;1;1;0;
374;OK;2;0;1;2;0;0;1;1;0..1;0;
375;OK;2;0;1;2;0;0;1;2;0..1;0;
376;OK;2;0;1;2;0;0;2;1;0..1;0;
377;OK;2;0;1;2;0;0;2;2;0..1;0;
378;OK;2;0;1;2;0;1;1;1;0..1;0;
379;OK;2;0;1;2;0;1;2;1;0..1;0;
380;OK;2;0;1;2;0;2;1;1;0..1;0;
381;OK;2;0;1;2;0;2;2;1;0..1;0;
382;OK;2;0;1;2;1;0;1;1;0..1;0;
383;OK;2;0;1;2;1;1;1;1;0..1;0;
384;OK;2;0;1;2;1;2;1;1;0..1;0;
385;OK;2;0;1;2;2;0;1;1;0..1;0;
386;OK;2;0;1;2;2;1;1;1;0..1;0;
387;OK;2;0;1;2;2;2;1;1;0..1;0;
388;OK;2;0;2;2;0;0;1;1;0..1;0;
389;OK;2;0;2;2;0;0;1;2;0..1;0;
390;OK;2;0;2;2;0;0;2;1;0..1;0;
391;OK;2;0;2;2;0;0;2;2;0..1;0;
392;OK;2;0;2;2;0;1;1;1;0..1;0;
393;OK;2;0;2;2;0;1;2;1;0..1;0;
394;OK;2;0;2;2;0;2;1;1;0..1;0;
395;OK;2;0;2;2;0;2;2;1;0..1;0;
396;OK;2;0;2;2;1;0;1;1;0..1;0;
397;OK;2;0;2;2;1;1;1;1;0..1;0;
398;OK;2;0;2;2;1;2;1;1;0..1;0;
399;OK;2;0;2;2;2;0;1;1;0..1;0;
400;OK;2;0;2;2;2;1;1;1;0..1;0;
401;OK;2;0;2;2;2;2;1;1;0..1;0;
402;OK;2;1;0;2;0;0;1;1;1;0;
403;OK;2;1;0;2;0;0;1;2;1;0;
404;OK;2;1;0;2;0;0;2;1;1;0;
405;OK;2;1;0;2;0;0;2;2;1;0;
406;OK;2;1;0;2;0;1;1;1;1;0;
407;OK;2;1;0;2;0;1;2;1;1;0;
408;OK;2;1;0;2;0;2;1;1;1;0;
409;OK;2;1;0;2;0;2;2;1;1;0;
410;OK;2;1;0;2;1;0;1;1;1;0;
411;OK;2;1;0;2;1;1;1;1;1;0;
412;OK;2;1;0;2;1;2;1;1;1;0;
413;OK;2;1;0;2;2;0;1;1;1;0;
414;OK;2;1;0;2;2;1;1;1;1;0;
415;OK;2;1;0;2;2;2;1;1;1;0;
416;OK;2;1;1;2;0;0;1;1;0..1;0;
417;OK;2;1;1;2;0;0;1;2;0..1;0;
418;OK;2;1;1;2;0;0;2;1;0..1;0;
419;OK;2;1;1;2;0;0;2;2;0..1;0;
420;OK;2;1;1;2;0;1;1;1;0..1;0;
421;OK;2;1;1;2;0;1;2;1;0..1;0;
422;OK;2;1;1;2;0;2;1;1;0..1;0;
423;OK;2;1;1;2;0;2;2;1;0..1;0;
424;OK;2;1;1;2;1;0;1;1;0..1;0;
425;OK;2;1;1;2;1;1;1;1;0..1;0;
426;OK;2;1;1;2;1;2;1;1;0..1;0;
427;OK;2;1;1;2;2;0;1;1;0..1;0;
428;OK;2;1;1;2;2;1;1;1;0..1;0;
429;OK;2;1;1;2;2;2;1;1;0..1;0;
430;OK;2;1;2;2;0;0;1;1;0..1;0;
431;OK;2;1;2;2;0;0;1;2;0..1;0;
432;OK;2;1;2;2;0;0;2;1;0..1;0;
433;OK;2;1;2;2;0;0;2;2;0..1;0;
434;OK;2;1;2;2;0;1;1;1;0..1;0;
435;OK;2;1;2;2;0;1;2;1;0..1;0;
436;OK;2;1;2;2;0;2;1;1;0..1;0;
437;OK;2;1;2;2;0;2;2;1;0..1;0;
438;OK;2;1;2;2;1;0;1;1;0..1;0;
439;OK;2;1;2;2;1;1;1;1;0..1;0;
440;OK;2;1;2;2;1;2;1;1;0..1;0;
441;OK;2;1;2;2;2;0;1;1;0..1;0;
442;OK;2;1;2;2;2;1;1;1;0..1;0;
443;OK;2;1;2;2;2;2;1;1;0..1;0;
444;OK;2;2;0;0;0;0;1;1;1;1;
445;OK;2;2;0;0;0;0;1;2;1;1;
446;OK;2;2;0;0;0;0;2;1;1;1;
447;OK;2;2;0;0;0;0;2;2;1;1;
448;OK;2;2;0;0;0;1;1;1;1;1;
449;OK;2;2;0;0;0;2;1;1;1;1;
450;OK;2;2;0;0;1;0;1;1;1;1;
451;OK;2;2;0;0;1;0;1;2;1;1;
452;OK;2;2;0;0;1;1;1;1;1;1;
453;OK;2;2;0;0;1;2;1;1;1;1;
454;OK;2;2;0;0;2;0;1;1;1;1;
455;OK;2;2;0;0;2;0;1;2;1;1;
456;OK;2;2;0;0;2;1;1;1;1;1;
457;OK;2;2;0;0;2;2;1;1;1;1;
458;OK;2;2;0;1;0;0;1;1;1;1;
459;OK;2;2;0;1;0;0;1;2;1;1;
460;OK;2;2;0;1;0;0;2;1;1;1;
461;OK;2;2;0;1;0;0;2;2;1;1;
462;OK;2;2;0;1;0;1;1;1;1;1;
463;OK;2;2;0;1;0;2;1;1;1;1;
464;OK;2;2;0;1;1;0;1;1;1;1;
465;OK;2;2;0;1;1;0;1;2;1;1;
466;OK;2;2;0;1;1;1;1;1;1;1;
467;OK;2;2;0;1;1;2;1;1;1;1;
468;OK;2;2;0;1;2;0;1;1;1;1;
469;OK;2;2;0;1;2;0;1;2;1;1;
470;OK;2;2;0;1;2;1;1;1;1;1;
471;OK;2;2;0;1;2;2;1;1;1;1;
472;OK;2;2;0;2;0;0;1;1;1;0..1;
473;OK;2;2;0;2;0;0;1;2;1;0..1;
474;OK;2;2;0;2;0;0;2;1;1;0..1;
475;OK;2;2;0;2;0;0;2;2;1;0..1;
476;OK;2;2;0;2;0;1;1;1;1;0..1;
477;OK;2;2;0;2;0;1;2;1;1;0;
478;OK;2;2;0;2;0;2;1;1;1;0..1;
479;OK;2;2;0;2;0;2;2;1;1;0;
480;OK;2;2;0;2;1;0;1;1;1;0..1;
481;OK;2;2;0;2;1;0;1;2;1;1;
482;OK;2;2;0;2;1;1;1;1;1;0..1;
483;OK;2;2;0;2;1;2;1;1;1;0..1;
484;OK;2;2;0;2;2;0;1;1;1;0..1;
485;OK;2;2;0;2;2;0;1;2;1;1;
486;OK;2;2;0;2;2;1;1;1;1;0..1;
487;OK;2;2;0;2;2;2;1;1;1;0..1;
488;OK;2;2;1;0;0;0;1;1;0..1;1;
489;OK;2;2;1;0;0;0;1;2;0..1;1;
490;OK;2;2;1;0;0;0;2;1;0..1;1;
491;OK;2;2;1;0;0;0;2;2;0..1;1;
492;OK;2;2;1;0;0;1;1;1;0..1;1;
493;OK;2;2;1;0;0;2;1;1;0..1;1;
494;OK;2;2;1;0;1;0;1;1;0..1;1;
495;OK;2;2;1;0;1;0;1;2;0..1;1;
496;OK;2;2;1;0;1;1;1;1;0..1;1;
497;OK;2;2;1;0;1;2;1;1;0..1;1;
498;OK;2;2;1;0;2;0;1;1;0..1;1;
499;OK;2;2;1;0;2;0;1;2;0..1;1;
500;OK;2;2;1;0;2;1;1;1;0..1;1;
501;OK;2;2;1;0;2;2;1;1;0..1;1;
502;OK;2;2;1;1;0;0;1;1;0..1;1;
503;OK;2;2;1;1;0;0;1;2;0..1;1;
504;OK;2;2;1;1;0;0;2;1;0..1;1;
505;OK;2;2;1;1;0;0;2;2;0..1;1;
506;OK;2;2;1;1;0;1;1;1;0..1;1;
507;OK;2;2;1;1;0;2;1;1;0..1;1;
508;OK;2;2;1;1;1;0;1;1;0..1;1;
509;OK;2;2;1;1;1;0;1;2;0..1;1;
510;OK;2;2;1;1;1;1;1;1;0..1;1;
511;OK;2;2;1;1;1;2;1;1;0..1;1;
512;OK;2;2;1;1;2;0;1;1;0..1;1;
513;OK;2;2;1;1;2;0;1;2;0..1;1;
514;OK;2;2;1;1;2;1;1;1;0..1;1;
515;OK;2;2;1;1;2;2;1;1;0..1;1;
516;OK;2;2;1;2;0;0;1;1;0..1;0..1;
517;OK;2;2;1;2;0;0;1;2;0..1;0..1;
518;OK;2;2;1;2;0;0;2;1;0..1;0..1;
519;OK;2;2;1;2;0;0;2;2;0..1;0..1;
520;OK;2;2;1;2;0;1;1;1;0..1;0..1;
521;OK;2;2;1;2;0;1;2;1;0..1;0;
522;OK;2;2;1;2;0;2;1;1;0..1;0..1;
523;OK;2;2;1;2;0;2;2;1;0..1;0;
524;OK;2;2;1;2;1;0;1;1;0..1;0..1;
525;OK;2;2;1;2;1;0;1;2;0..1;1;
526;OK;2;2;1;2;1;1;1;1;0..1;0..1;
527;OK;2;2;1;2;1;2;1;1;0..1;0..1;
528;OK;2;2;1;2;2;0;1;1;0..1;0..1;
529;OK;2;2;1;2;2;0;1;2;0..1;1;
530;OK;2;2;1;2;2;1;1;1;0..1;0..1;
531;OK;2;2;1;2;2;2;1;1;0..1;0..1;
532;OK;2;2;2;0;0;0;1;1;0..1;1;
533;OK;2;2;2;0;0;0;1;2;0..1;1;
534;OK;2;2;2;0;0;0;2;1;0..1;1;
535;OK;2;2;2;0;0;0;2;2;0..1;1;
536;OK;2;2;2;0;0;1;1;1;0..1;1;
537;OK;2;2;2;0;0;2;1;1;0..1;1;
538;OK;2;2;2;0;1;0;1;1;0..1;1;
539;OK;2;2;2;0;1;0;1;2;0..1;1;
540;OK;2;2;2;0;1;1;1;1;0..1;1;
541;OK;2;2;2;0;1;2;1;1;0..1;1;
542;OK;2;2;2;0;2;0;1;1;0..1;1;
543;OK;2;2;2;0;2;0;1;2;0..1;1;
544;OK;2;2;2;0;2;1;1;1;0..1;1;
545;OK;2;2;2;0;2;2;1;1;0..1;1;
546;OK;2;2;2;1;0;0;1;1;0..1;1;
547;OK;2;2;2;1;0;0;1;2;0..1;1;
548;OK;2;2;2;1;0;0;2;1;0..1;1;
549;OK;2;2;2;1;0;0;2;2;0..1;1;
550;OK;2;2;2;1;0;1;1;1;0..1;1;
551;OK;2;2;2;1;0;2;1;1;0..1;1;
552;OK;2;2;2;1;1;0;1;1;0..1;1;
553;OK;2;2;2;1;1;0;1;2;0..1;1;
554;OK;2;2;2;1;1;1;1;1;0..1;1;
555;OK;2;2;2;1;1;2;1;1;0..1;1;
556;OK;2;2;2;1;2;0;1;1;0..1;1;
557;OK;2;2;2;1;2;0;1;2;0..1;1;
558;OK;2;2;2;1;2;1;1;1;0..1;1;
559;OK;2;2;2;1;2;2;1;1;0..1;1;
560;OK;2;2;2;2;0;0;1;1;0..1;0..1;
561;OK;2;2;2;2;0;0;1;2;0..1;0..1;
562;OK;2;2;2;2;0;0;2;1;0..1;0..1;
563;OK;2;2;2;2;0;0;2;2;0..1;0..1;
564;OK;2;2;2;2;0;1;1;1;0..1;0..1;
565;OK;2;2;2;2;0;1;2;1;0..1;0;
566;OK;2;2;2;2;0;2;1;1;0..1;0..1;
567;OK;2;2;2;2;0;2;2;1;0..1;0;
568;OK;2;2;2;2;1;0;1;1;0..1;0..1;
569;OK;2;2;2;2;1;0;1;2;0..1;1;
570;OK;2;2;2;2;1;1;1;1;0..1;0..1;
571;OK;2;2;2;2;1;2;1;1;0..1;0..1;
572;OK;2;2;2;2;2;0;1;1;0..1;0..1;
573;OK;2;2;2;2;2;0;1;2;0..1;1;
574;OK;2;2;2;2;2;1;1;1;0..1;0..1;
575;OK;2;2;2;2;2;2;1;1;0..1;0..1;
